CLASSIFICATION
6
2
8
8
8
8
2
tanh
tanh
tanh
tanh
softmax
0.113482
0.384169
0.837371
-0.698929
-0.248675
-0.0497738
-1.40795
-0.737862
0.235512
0.425115
0.981152
0.0970993
2.4842
-0.0197677
0.93735
1.00055
-0.0664647
0.0423693
0.10069
0.0825102
0.0511453
-0.0546785
0.0302154
-0.0132036
-0.170015
-0.0220261
0.0859593
0.131292
0.0944985
0.00411357
0.0708133
-0.0851864
-0.846273
0.0451617
0.176418
0.729419
0.785614
-0.261569
0.426114
0.122135
0.17626
-0.0364758
-0.0889612
-0.188043
-0.134674
0.204216
-0.21087
-0.082478
0.0551968
-0.0321986
0.133082
0.104393
-0.182029
0.0510363
-0.119459
-0.0589491
0.0800658
-0.061202
0.00992547
0.0166379
-0.0501577
0.0774783
-0.0497805
0.00157811
0.186383
0.0641531
-0.148774
-0.225812
-0.0298652
-0.0243401
-0.109773
0.0294216
-0.0292714
0.00689227
0.0818305
0.143604
0.0368608
0.028504
-0.00875639
-0.0305289
0.178384
-0.349508
0.0256854
-0.141623
-0.262454
0.385306
-0.258634
0.0691819
-0.045629
-0.0121786
-0.0260943
-0.0258753
0.0442618
-0.023889
-0.115375
-0.0286035
0.049228
0.13187
0.0550908
0.220742
0.0245954
-0.264648
0.32515
0.027279
-0.0539721
0.344095
0.0221395
0.17804
0.188591
-0.354202
0.281919
-0.0122703
-0.236445
0.218166
-0.079447
0.00932462
0.251116
-0.188852
0.0507679
-0.109094
0.181363
-0.0734089
0.0759091
0.0266048
-0.107756
0.0534955
-0.00976572
0.0711523
-0.164731
0.109648
-0.0404407
0.0376926
0.116691
-0.188
0.0533462
-0.0678113
0.00194984
0.125887
0.015094
0.0462851
-0.0137066
-0.154904
0.0106576
0.0227357
0.0202318
-0.315082
0.204946
-0.270463
-0.0387043
-0.0525339
0.364726
-0.15723
0.0746495
0.326168
-0.307465
0.255259
-0.01891
0.00274769
-0.319076
0.259418
0.00418087
-0.0971262
0.0500083
-0.0780737
-0.00954128
-0.0193861
0.0968297
-0.0501327
0.0986106
0.0539937
-0.1188
0.025572
-0.0342318
-0.0356778
-0.0168428
0.107762
0.0631122
0.343463
-0.29419
0.298618
0.0133197
0.0188005
-0.384886
0.268179
-0.11768
-0.3829
0.416561
-0.28202
0.0230576
0.0137918
0.358
-0.325157
0.153362
0.0779909
-0.161401
0.0370503
-0.0677103
-0.0864734
-0.0247543
0.196354
0.0150025
-0.135199
0.0870207
-0.112229
-0.0140681
-0.0353911
0.157185
-0.0632538
0.189522
-0.185482
0.413389
-0.413379
-0.478359
0.470432
0.276886
-0.28258
-0.0581845
0.0567251
-0.106951
0.108426
-0.354737
0.349708
0.446083
-0.434089
-0.000573008
-0.00160241
0.00663283
0.000226108
0.00982889
-9.14016e-05
0.00247203
-0.000609436
-0.00350984
0.0184135
-0.058925
-0.0681498
0.0379378
0.000988578
-0.0264558
-0.027338
0.0576244
0.0232229
0.0332785
0.0320792
-0.0341607
-0.0260716
0.0431805
0.0353156
-0.016466
0.0333661
-0.0327855
0.0224474
0.0139191
0.018815
-0.036461
0.0173638
-0.0212009
0.0212009
